\relax 
\bibstyle{biblatex}
\bibdata{conf2-blx,biblio2}
\citation{biblatex-control}
\abx@aux@sortscheme{nty}
\abx@aux@refcontext{nty/global/}
\citation{Fraser}
\abx@aux@cite{Fraser}
\abx@aux@segm{0}{0}{Fraser}
\citation{Fraser}
\abx@aux@segm{0}{0}{Fraser}
\citation{McLoughlin:2006:MMD:1141277.1141325}
\abx@aux@cite{McLoughlin:2006:MMD:1141277.1141325}
\abx@aux@segm{0}{0}{McLoughlin:2006:MMD:1141277.1141325}
\citation{Ramirez:1994:MIS:187436.187458}
\abx@aux@cite{Ramirez:1994:MIS:187436.187458}
\abx@aux@segm{0}{0}{Ramirez:1994:MIS:187436.187458}
\citation{Fraser}
\abx@aux@segm{0}{0}{Fraser}
\@writefile{toc}{\boolfalse {citerequest}\boolfalse {citetracker}\boolfalse {pagetracker}\boolfalse {backtracker}\relax }
\@writefile{lof}{\boolfalse {citerequest}\boolfalse {citetracker}\boolfalse {pagetracker}\boolfalse {backtracker}\relax }
\@writefile{lot}{\boolfalse {citerequest}\boolfalse {citetracker}\boolfalse {pagetracker}\boolfalse {backtracker}\relax }
\@writefile{toc}{\defcounter {refsection}{0}\relax }\@writefile{toc}{\contentsline {section}{\numberline {I}Introduction}{1}}
\@writefile{toc}{\defcounter {refsection}{0}\relax }\@writefile{toc}{\contentsline {section}{\numberline {II}Related Literature}{1}}
\newlabel{table:emrbenefits}{{II}{1}}
\@writefile{lot}{\defcounter {refsection}{0}\relax }\@writefile{lot}{\contentsline {table}{\numberline {I}{\ignorespaces Benefits of Electronic Medical Record Systems \cite {Fraser}}}{1}}
\@writefile{lof}{\defcounter {refsection}{0}\relax }\@writefile{lof}{\contentsline {figure}{\numberline {1}{\ignorespaces Process flow in using the ReMiDi mobile application}}{2}}
\newlabel{fig:process}{{1}{2}}
\@writefile{toc}{\defcounter {refsection}{0}\relax }\@writefile{toc}{\contentsline {section}{\numberline {III}ReMiDi system}{2}}
\@writefile{toc}{\defcounter {refsection}{0}\relax }\@writefile{toc}{\contentsline {subsection}{\numberline {\unhbox \voidb@x \hbox {III-A}}Android application}{2}}
\@writefile{lof}{\defcounter {refsection}{0}\relax }\@writefile{lof}{\contentsline {figure}{\numberline {2}{\ignorespaces An image of a blood smear viewed from a micrsocope}}{2}}
\newlabel{fig:imagemicr}{{2}{2}}
\@writefile{toc}{\defcounter {refsection}{0}\relax }\@writefile{toc}{\contentsline {subsection}{\numberline {\unhbox \voidb@x \hbox {III-B}}Web application}{2}}
\@writefile{lof}{\defcounter {refsection}{0}\relax }\@writefile{lof}{\contentsline {figure}{\numberline {3}{\ignorespaces New Report views of ReMiDi mobile application}}{3}}
\newlabel{fig:mobile}{{3}{3}}
\@writefile{lof}{\defcounter {refsection}{0}\relax }\@writefile{lof}{\contentsline {figure}{\numberline {4}{\ignorespaces Queued and Sent Entries views of ReMiDi mobile application}}{3}}
\newlabel{fig:queuedsent}{{4}{3}}
\@writefile{lof}{\defcounter {refsection}{0}\relax }\@writefile{lof}{\contentsline {figure}{\numberline {5}{\ignorespaces Login page of the web application}}{3}}
\newlabel{fig:weblogin}{{5}{3}}
\@writefile{lot}{\defcounter {refsection}{0}\relax }\@writefile{lot}{\contentsline {table}{\numberline {II}{\ignorespaces Available user types for the web application}}{4}}
\newlabel{table:permissions}{{II}{4}}
\@writefile{lof}{\defcounter {refsection}{0}\relax }\@writefile{lof}{\contentsline {figure}{\numberline {6}{\ignorespaces Records page showing the history of submissions of a medical technologist}}{4}}
\newlabel{fig:microscopist}{{6}{4}}
\@writefile{lof}{\defcounter {refsection}{0}\relax }\@writefile{lof}{\contentsline {figure}{\numberline {7}{\ignorespaces Records page showing the history of submissions of all medical technologist}}{4}}
\newlabel{fig:validatorrecords}{{7}{4}}
\@writefile{lof}{\defcounter {refsection}{0}\relax }\@writefile{lof}{\contentsline {figure}{\numberline {8}{\ignorespaces Validator form shown below the case page where diagnosis can be entered}}{4}}
\newlabel{fig:validatorform}{{8}{4}}
\@writefile{lof}{\defcounter {refsection}{0}\relax }\@writefile{lof}{\contentsline {figure}{\numberline {9}{\ignorespaces Monitoring page}}{4}}
\newlabel{fig:validatormonitoring}{{9}{4}}
\@writefile{lof}{\defcounter {refsection}{0}\relax }\@writefile{lof}{\contentsline {figure}{\numberline {10}{\ignorespaces Timeline page}}{4}}
\newlabel{fig:validatortimeline}{{10}{4}}
\abx@aux@refcontextdefaultsdone
\abx@aux@defaultrefcontext{0}{Fraser}{nty/global/}
\abx@aux@defaultrefcontext{0}{McLoughlin:2006:MMD:1141277.1141325}{nty/global/}
\abx@aux@defaultrefcontext{0}{Ramirez:1994:MIS:187436.187458}{nty/global/}
\@writefile{toc}{\defcounter {refsection}{0}\relax }\@writefile{toc}{\contentsline {subsection}{\numberline {\unhbox \voidb@x \hbox {III-C}}Deployment}{5}}
\@writefile{toc}{\defcounter {refsection}{0}\relax }\@writefile{toc}{\contentsline {section}{\numberline {IV}Conclusion}{5}}
