This is BibTeX, Version 0.99d (TeX Live 2016)
Capacity: max_strings=35307, hash_size=35307, hash_prime=30011
The top-level auxiliary file: conf2.aux
The style file: biblatex.bst
Reallocated glb_str_ptr (elt_size=4) to 20 items from 10.
Reallocated global_strs (elt_size=20001) to 20 items from 10.
Reallocated glb_str_end (elt_size=4) to 20 items from 10.
Reallocated singl_function (elt_size=4) to 100 items from 50.
Reallocated singl_function (elt_size=4) to 100 items from 50.
Reallocated singl_function (elt_size=4) to 100 items from 50.
Reallocated wiz_functions (elt_size=4) to 6000 items from 3000.
Reallocated singl_function (elt_size=4) to 100 items from 50.
Reallocated singl_function (elt_size=4) to 100 items from 50.
Reallocated singl_function (elt_size=4) to 100 items from 50.
Reallocated singl_function (elt_size=4) to 100 items from 50.
Reallocated singl_function (elt_size=4) to 100 items from 50.
Reallocated singl_function (elt_size=4) to 100 items from 50.
Reallocated singl_function (elt_size=4) to 100 items from 50.
Database file #1: conf2-blx.bib
Database file #2: biblio2.bib
Biblatex version: 3.3
Reallocated wiz_functions (elt_size=4) to 9000 items from 6000.
Reallocated singl_function (elt_size=4) to 100 items from 50.
You've used 4 entries,
            6256 wiz_defined-function locations,
            1213 strings with 9576 characters,
and the built_in function-call counts, 26293 in all, are:
= -- 1952
> -- 460
< -- 119
+ -- 716
- -- 186
* -- 2051
:= -- 2960
add.period$ -- 0
call.type$ -- 4
change.case$ -- 66
chr.to.int$ -- 36
cite$ -- 6
duplicate$ -- 2645
empty$ -- 2322
format.name$ -- 273
if$ -- 5273
int.to.chr$ -- 0
int.to.str$ -- 10
missing$ -- 0
newline$ -- 184
num.names$ -- 168
pop$ -- 1111
preamble$ -- 1
purify$ -- 94
quote$ -- 0
skip$ -- 669
stack$ -- 0
substring$ -- 3540
swap$ -- 657
text.length$ -- 107
text.prefix$ -- 3
top$ -- 1
type$ -- 124
warning$ -- 0
while$ -- 374
width$ -- 0
write$ -- 181
