PWD /Users/kristofer/Documents/thesis-manuscript
INPUT /usr/local/texlive/2016/texmf.cnf
INPUT /usr/local/texlive/2016/texmf-dist/web2c/texmf.cnf
INPUT /usr/local/texlive/2016/texmf-var/web2c/pdftex/pdflatex.fmt
INPUT conf.tex
OUTPUT conf.log
INPUT IEEEtran.cls
INPUT IEEEtran.cls
INPUT /usr/local/texlive/2016/texmf-dist/tex/latex/psnfss/ot1ptm.fd
INPUT /usr/local/texlive/2016/texmf-dist/tex/latex/psnfss/ot1ptm.fd
INPUT /usr/local/texlive/2016/texmf-dist/fonts/map/fontname/texfonts.map
INPUT /usr/local/texlive/2016/texmf-dist/fonts/tfm/adobe/times/ptmr7t.tfm
INPUT /usr/local/texlive/2016/texmf-dist/fonts/tfm/adobe/times/ptmr7t.tfm
INPUT /usr/local/texlive/2016/texmf-dist/fonts/tfm/adobe/times/ptmb7t.tfm
INPUT /usr/local/texlive/2016/texmf-dist/fonts/tfm/adobe/times/ptmri7t.tfm
INPUT /usr/local/texlive/2016/texmf-dist/fonts/tfm/adobe/times/ptmbi7t.tfm
INPUT /usr/local/texlive/2016/texmf-dist/fonts/tfm/adobe/times/ptmr7t.tfm
INPUT /usr/local/texlive/2016/texmf-dist/fonts/tfm/adobe/times/ptmb7t.tfm
INPUT /usr/local/texlive/2016/texmf-dist/fonts/tfm/adobe/times/ptmri7t.tfm
INPUT /usr/local/texlive/2016/texmf-dist/fonts/tfm/adobe/times/ptmbi7t.tfm
INPUT /usr/local/texlive/2016/texmf-dist/fonts/tfm/adobe/times/ptmr7t.tfm
INPUT /usr/local/texlive/2016/texmf-dist/fonts/tfm/adobe/times/ptmb7t.tfm
INPUT /usr/local/texlive/2016/texmf-dist/fonts/tfm/adobe/times/ptmri7t.tfm
INPUT /usr/local/texlive/2016/texmf-dist/fonts/tfm/adobe/times/ptmbi7t.tfm
INPUT /usr/local/texlive/2016/texmf-dist/fonts/tfm/adobe/times/ptmr7t.tfm
INPUT /usr/local/texlive/2016/texmf-dist/fonts/tfm/adobe/times/ptmb7t.tfm
INPUT /usr/local/texlive/2016/texmf-dist/fonts/tfm/adobe/times/ptmri7t.tfm
INPUT /usr/local/texlive/2016/texmf-dist/fonts/tfm/adobe/times/ptmbi7t.tfm
INPUT /usr/local/texlive/2016/texmf-dist/fonts/tfm/adobe/times/ptmb7t.tfm
INPUT /usr/local/texlive/2016/texmf-dist/fonts/tfm/adobe/times/ptmri7t.tfm
INPUT /usr/local/texlive/2016/texmf-dist/fonts/tfm/adobe/times/ptmbi7t.tfm
INPUT /usr/local/texlive/2016/texmf-dist/fonts/tfm/adobe/times/ptmr7t.tfm
INPUT /usr/local/texlive/2016/texmf-dist/fonts/tfm/adobe/times/ptmb7t.tfm
INPUT /usr/local/texlive/2016/texmf-dist/fonts/tfm/adobe/times/ptmri7t.tfm
INPUT /usr/local/texlive/2016/texmf-dist/fonts/tfm/adobe/times/ptmbi7t.tfm
INPUT /usr/local/texlive/2016/texmf-dist/fonts/tfm/adobe/times/ptmr7t.tfm
INPUT /usr/local/texlive/2016/texmf-dist/fonts/tfm/adobe/times/ptmb7t.tfm
INPUT /usr/local/texlive/2016/texmf-dist/fonts/tfm/adobe/times/ptmri7t.tfm
INPUT /usr/local/texlive/2016/texmf-dist/fonts/tfm/adobe/times/ptmbi7t.tfm
INPUT /usr/local/texlive/2016/texmf-dist/fonts/tfm/adobe/times/ptmr7t.tfm
INPUT /usr/local/texlive/2016/texmf-dist/fonts/tfm/adobe/times/ptmb7t.tfm
INPUT /usr/local/texlive/2016/texmf-dist/fonts/tfm/adobe/times/ptmri7t.tfm
INPUT /usr/local/texlive/2016/texmf-dist/fonts/tfm/adobe/times/ptmbi7t.tfm
INPUT /usr/local/texlive/2016/texmf-dist/fonts/tfm/adobe/times/ptmr7t.tfm
INPUT /usr/local/texlive/2016/texmf-dist/fonts/tfm/adobe/times/ptmb7t.tfm
INPUT /usr/local/texlive/2016/texmf-dist/fonts/tfm/adobe/times/ptmri7t.tfm
INPUT /usr/local/texlive/2016/texmf-dist/fonts/tfm/adobe/times/ptmbi7t.tfm
INPUT /usr/local/texlive/2016/texmf-dist/fonts/tfm/adobe/times/ptmr7t.tfm
INPUT /usr/local/texlive/2016/texmf-dist/fonts/tfm/adobe/times/ptmb7t.tfm
INPUT /usr/local/texlive/2016/texmf-dist/fonts/tfm/adobe/times/ptmri7t.tfm
INPUT /usr/local/texlive/2016/texmf-dist/fonts/tfm/adobe/times/ptmbi7t.tfm
INPUT /usr/local/texlive/2016/texmf-dist/tex/latex/graphics/graphicx.sty
INPUT /usr/local/texlive/2016/texmf-dist/tex/latex/graphics/graphicx.sty
INPUT /usr/local/texlive/2016/texmf-dist/tex/latex/graphics/keyval.sty
INPUT /usr/local/texlive/2016/texmf-dist/tex/latex/graphics/keyval.sty
INPUT /usr/local/texlive/2016/texmf-dist/tex/latex/graphics/graphics.sty
INPUT /usr/local/texlive/2016/texmf-dist/tex/latex/graphics/graphics.sty
INPUT /usr/local/texlive/2016/texmf-dist/tex/latex/graphics/trig.sty
INPUT /usr/local/texlive/2016/texmf-dist/tex/latex/graphics/trig.sty
INPUT /usr/local/texlive/2016/texmf-dist/tex/latex/graphics-cfg/graphics.cfg
INPUT /usr/local/texlive/2016/texmf-dist/tex/latex/graphics-cfg/graphics.cfg
INPUT /usr/local/texlive/2016/texmf-dist/tex/latex/pdftex-def/pdftex.def
INPUT /usr/local/texlive/2016/texmf-dist/tex/latex/pdftex-def/pdftex.def
INPUT /usr/local/texlive/2016/texmf-dist/tex/generic/oberdiek/infwarerr.sty
INPUT /usr/local/texlive/2016/texmf-dist/tex/generic/oberdiek/infwarerr.sty
INPUT /usr/local/texlive/2016/texmf-dist/tex/generic/oberdiek/ltxcmds.sty
INPUT /usr/local/texlive/2016/texmf-dist/tex/generic/oberdiek/ltxcmds.sty
INPUT /usr/local/texlive/2016/texmf-dist/tex/latex/amsmath/amsmath.sty
INPUT /usr/local/texlive/2016/texmf-dist/tex/latex/amsmath/amsmath.sty
INPUT /usr/local/texlive/2016/texmf-dist/tex/latex/amsmath/amstext.sty
INPUT /usr/local/texlive/2016/texmf-dist/tex/latex/amsmath/amstext.sty
INPUT /usr/local/texlive/2016/texmf-dist/tex/latex/amsmath/amsgen.sty
INPUT /usr/local/texlive/2016/texmf-dist/tex/latex/amsmath/amsgen.sty
INPUT /usr/local/texlive/2016/texmf-dist/tex/latex/amsmath/amsbsy.sty
INPUT /usr/local/texlive/2016/texmf-dist/tex/latex/amsmath/amsbsy.sty
INPUT /usr/local/texlive/2016/texmf-dist/tex/latex/amsmath/amsopn.sty
INPUT /usr/local/texlive/2016/texmf-dist/tex/latex/amsmath/amsopn.sty
INPUT /usr/local/texlive/2016/texmf-dist/tex/latex/biblatex/biblatex.sty
INPUT /usr/local/texlive/2016/texmf-dist/tex/latex/biblatex/biblatex.sty
INPUT /usr/local/texlive/2016/texmf-dist/tex/generic/iftex/iftex.sty
INPUT /usr/local/texlive/2016/texmf-dist/tex/generic/iftex/iftex.sty
INPUT /usr/local/texlive/2016/texmf-dist/tex/generic/oberdiek/pdftexcmds.sty
INPUT /usr/local/texlive/2016/texmf-dist/tex/generic/oberdiek/pdftexcmds.sty
INPUT /usr/local/texlive/2016/texmf-dist/tex/generic/oberdiek/ifluatex.sty
INPUT /usr/local/texlive/2016/texmf-dist/tex/generic/oberdiek/ifluatex.sty
INPUT /usr/local/texlive/2016/texmf-dist/tex/generic/oberdiek/ifpdf.sty
INPUT /usr/local/texlive/2016/texmf-dist/tex/generic/oberdiek/ifpdf.sty
INPUT /usr/local/texlive/2016/texmf-dist/tex/latex/etoolbox/etoolbox.sty
INPUT /usr/local/texlive/2016/texmf-dist/tex/latex/etoolbox/etoolbox.sty
INPUT /usr/local/texlive/2016/texmf-dist/tex/latex/oberdiek/kvoptions.sty
INPUT /usr/local/texlive/2016/texmf-dist/tex/latex/oberdiek/kvoptions.sty
INPUT /usr/local/texlive/2016/texmf-dist/tex/generic/oberdiek/kvsetkeys.sty
INPUT /usr/local/texlive/2016/texmf-dist/tex/generic/oberdiek/kvsetkeys.sty
INPUT /usr/local/texlive/2016/texmf-dist/tex/generic/oberdiek/etexcmds.sty
INPUT /usr/local/texlive/2016/texmf-dist/tex/generic/oberdiek/etexcmds.sty
INPUT /usr/local/texlive/2016/texmf-dist/tex/latex/logreq/logreq.sty
INPUT /usr/local/texlive/2016/texmf-dist/tex/latex/logreq/logreq.sty
INPUT /usr/local/texlive/2016/texmf-dist/tex/latex/logreq/logreq.def
INPUT /usr/local/texlive/2016/texmf-dist/tex/latex/logreq/logreq.def
INPUT /usr/local/texlive/2016/texmf-dist/tex/latex/base/ifthen.sty
INPUT /usr/local/texlive/2016/texmf-dist/tex/latex/base/ifthen.sty
INPUT /usr/local/texlive/2016/texmf-dist/tex/latex/url/url.sty
INPUT /usr/local/texlive/2016/texmf-dist/tex/latex/url/url.sty
INPUT /usr/local/texlive/2016/texmf-dist/tex/generic/xstring/xstring.sty
INPUT /usr/local/texlive/2016/texmf-dist/tex/generic/xstring/xstring.sty
INPUT /usr/local/texlive/2016/texmf-dist/tex/generic/xstring/xstring.tex
INPUT /usr/local/texlive/2016/texmf-dist/tex/latex/biblatex/blx-dm.def
INPUT /usr/local/texlive/2016/texmf-dist/tex/latex/biblatex/blx-dm.def
INPUT /usr/local/texlive/2016/texmf-dist/tex/latex/biblatex/blx-compat.def
INPUT /usr/local/texlive/2016/texmf-dist/tex/latex/biblatex/blx-compat.def
INPUT /usr/local/texlive/2016/texmf-dist/tex/latex/biblatex/blx-bibtex.def
INPUT /usr/local/texlive/2016/texmf-dist/tex/latex/biblatex/blx-bibtex.def
INPUT /usr/local/texlive/2016/texmf-dist/tex/latex/biblatex/biblatex.def
INPUT /usr/local/texlive/2016/texmf-dist/tex/latex/biblatex/biblatex.def
INPUT /usr/local/texlive/2016/texmf-dist/tex/latex/biblatex/bbx/numeric.bbx
INPUT /usr/local/texlive/2016/texmf-dist/tex/latex/biblatex/bbx/numeric.bbx
INPUT /usr/local/texlive/2016/texmf-dist/tex/latex/biblatex/bbx/standard.bbx
INPUT /usr/local/texlive/2016/texmf-dist/tex/latex/biblatex/bbx/standard.bbx
INPUT /usr/local/texlive/2016/texmf-dist/tex/latex/biblatex/cbx/numeric.cbx
INPUT /usr/local/texlive/2016/texmf-dist/tex/latex/biblatex/cbx/numeric.cbx
INPUT /usr/local/texlive/2016/texmf-dist/tex/latex/biblatex/biblatex.cfg
INPUT /usr/local/texlive/2016/texmf-dist/tex/latex/biblatex/biblatex.cfg
INPUT /usr/local/texlive/2016/texmf-dist/tex/latex/biblatex/lbx/english.lbx
INPUT /usr/local/texlive/2016/texmf-dist/tex/latex/biblatex/lbx/english.lbx
INPUT conf.aux
INPUT conf.aux
OUTPUT conf.aux
INPUT /usr/local/texlive/2016/texmf-dist/tex/context/base/mkii/supp-pdf.mkii
INPUT /usr/local/texlive/2016/texmf-dist/tex/context/base/mkii/supp-pdf.mkii
INPUT /usr/local/texlive/2016/texmf-dist/tex/latex/oberdiek/epstopdf-base.sty
INPUT /usr/local/texlive/2016/texmf-dist/tex/latex/oberdiek/epstopdf-base.sty
INPUT /usr/local/texlive/2016/texmf-dist/tex/latex/oberdiek/grfext.sty
INPUT /usr/local/texlive/2016/texmf-dist/tex/latex/oberdiek/grfext.sty
INPUT /usr/local/texlive/2016/texmf-dist/tex/generic/oberdiek/kvdefinekeys.sty
INPUT /usr/local/texlive/2016/texmf-dist/tex/generic/oberdiek/kvdefinekeys.sty
INPUT /usr/local/texlive/2016/texmf-dist/tex/latex/latexconfig/epstopdf-sys.cfg
INPUT /usr/local/texlive/2016/texmf-dist/tex/latex/latexconfig/epstopdf-sys.cfg
OUTPUT conf-blx.bib
INPUT conf.bbl
INPUT conf.bbl
INPUT conf.bbl
INPUT /usr/local/texlive/2016/texmf-dist/fonts/tfm/adobe/times/ptmrc7t.tfm
INPUT thinsmear.jpg
INPUT ./thinsmear.jpg
OUTPUT conf.pdf
INPUT ./thinsmear.jpg
INPUT malariatone1.jpg
INPUT ./malariatone1.jpg
INPUT ./malariatone1.jpg
INPUT malariatone2.jpg
INPUT ./malariatone2.jpg
INPUT ./malariatone2.jpg
INPUT /usr/local/texlive/2016/texmf-dist/fonts/vf/adobe/times/ptmr7t.vf
INPUT /usr/local/texlive/2016/texmf-dist/fonts/tfm/adobe/times/ptmr8r.tfm
INPUT /usr/local/texlive/2016/texmf-var/fonts/map/pdftex/updmap/pdftex.map
INPUT /usr/local/texlive/2016/texmf-dist/fonts/vf/adobe/times/ptmr7t.vf
INPUT /usr/local/texlive/2016/texmf-dist/fonts/tfm/adobe/times/ptmr8r.tfm
INPUT /usr/local/texlive/2016/texmf-dist/fonts/vf/adobe/times/ptmr7t.vf
INPUT /usr/local/texlive/2016/texmf-dist/fonts/tfm/adobe/times/ptmr8r.tfm
INPUT /usr/local/texlive/2016/texmf-dist/fonts/vf/adobe/times/ptmbi7t.vf
INPUT /usr/local/texlive/2016/texmf-dist/fonts/tfm/adobe/times/ptmbi8r.tfm
INPUT /usr/local/texlive/2016/texmf-dist/fonts/vf/adobe/times/ptmb7t.vf
INPUT /usr/local/texlive/2016/texmf-dist/fonts/tfm/adobe/times/ptmb8r.tfm
INPUT /usr/local/texlive/2016/texmf-dist/fonts/vf/adobe/times/ptmrc7t.vf
INPUT /usr/local/texlive/2016/texmf-dist/fonts/tfm/adobe/times/ptmr8r.tfm
INPUT /usr/local/texlive/2016/texmf-dist/fonts/vf/adobe/times/ptmri7t.vf
INPUT /usr/local/texlive/2016/texmf-dist/fonts/tfm/adobe/times/ptmri8r.tfm
INPUT cnn.jpeg
INPUT ./cnn.jpeg
INPUT ./cnn.jpeg
INPUT /usr/local/texlive/2016/texmf-dist/fonts/vf/adobe/times/ptmr7t.vf
INPUT iocbefore.png
INPUT ./iocbefore.png
INPUT ./iocbefore.png
INPUT iocafter.png
INPUT ./iocafter.png
INPUT ./iocafter.png
INPUT iocafter.png
INPUT ./iocafter.png
INPUT imstd.png
INPUT ./imstd.png
INPUT ./imstd.png
INPUT imstd.png
INPUT ./imstd.png
INPUT ithresh.png
INPUT ./ithresh.png
INPUT ./ithresh.png
INPUT 1corig.JPG
INPUT ./1corig.JPG
INPUT ./1corig.JPG
INPUT 1c.JPG
INPUT ./1c.JPG
INPUT ./1c.JPG
INPUT s1.jpg
INPUT ./s1.jpg
INPUT ./s1.jpg
INPUT s2.jpg
INPUT ./s2.jpg
INPUT ./s2.jpg
INPUT s3.jpg
INPUT ./s3.jpg
INPUT ./s3.jpg
INPUT s4.jpg
INPUT ./s4.jpg
INPUT ./s4.jpg
INPUT s5.jpg
INPUT ./s5.jpg
INPUT ./s5.jpg
INPUT s6.jpg
INPUT ./s6.jpg
INPUT ./s6.jpg
INPUT /usr/local/texlive/2016/texmf-dist/fonts/vf/adobe/times/ptmri7t.vf
INPUT /usr/local/texlive/2016/texmf-dist/fonts/tfm/adobe/times/ptmri8r.tfm
INPUT /usr/local/texlive/2016/texmf-dist/fonts/vf/adobe/times/ptmr7t.vf
INPUT /usr/local/texlive/2016/texmf-dist/fonts/tfm/adobe/times/ptmr8r.tfm
INPUT 0.jpg
INPUT ./0.jpg
INPUT ./0.jpg
INPUT 15.jpg
INPUT ./15.jpg
INPUT ./15.jpg
INPUT 30.jpg
INPUT ./30.jpg
INPUT ./30.jpg
INPUT 45.jpg
INPUT ./45.jpg
INPUT ./45.jpg
INPUT 60.jpg
INPUT ./60.jpg
INPUT ./60.jpg
INPUT 75.jpg
INPUT ./75.jpg
INPUT ./75.jpg
INPUT 90.jpg
INPUT ./90.jpg
INPUT ./90.jpg
INPUT 105.jpg
INPUT ./105.jpg
INPUT ./105.jpg
INPUT 120.jpg
INPUT ./120.jpg
INPUT ./120.jpg
INPUT 135.jpg
INPUT ./135.jpg
INPUT ./135.jpg
INPUT 150.jpg
INPUT ./150.jpg
INPUT ./150.jpg
INPUT 165.jpg
INPUT ./165.jpg
INPUT ./165.jpg
INPUT 180.jpg
INPUT ./180.jpg
INPUT ./180.jpg
INPUT 195.jpg
INPUT ./195.jpg
INPUT ./195.jpg
INPUT 210.jpg
INPUT ./210.jpg
INPUT ./210.jpg
INPUT 225.jpg
INPUT ./225.jpg
INPUT ./225.jpg
INPUT 240.jpg
INPUT ./240.jpg
INPUT ./240.jpg
INPUT 255.jpg
INPUT ./255.jpg
INPUT ./255.jpg
INPUT 270.jpg
INPUT ./270.jpg
INPUT ./270.jpg
INPUT 285.jpg
INPUT ./285.jpg
INPUT ./285.jpg
INPUT 300.jpg
INPUT ./300.jpg
INPUT ./300.jpg
INPUT 315.jpg
INPUT ./315.jpg
INPUT ./315.jpg
INPUT 330.jpg
INPUT ./330.jpg
INPUT ./330.jpg
INPUT 345.jpg
INPUT ./345.jpg
INPUT ./345.jpg
INPUT cnntraintroph.png
INPUT ./cnntraintroph.png
INPUT ./cnntraintroph.png
INPUT /usr/local/texlive/2016/texmf-dist/fonts/tfm/adobe/times/ptmrc7t.tfm
INPUT /usr/local/texlive/2016/texmf-dist/fonts/vf/adobe/times/ptmr7t.vf
INPUT /usr/local/texlive/2016/texmf-dist/fonts/tfm/adobe/times/ptmr8r.tfm
INPUT /usr/local/texlive/2016/texmf-dist/fonts/vf/adobe/times/ptmrc7t.vf
INPUT /usr/local/texlive/2016/texmf-dist/fonts/tfm/adobe/times/ptmr8r.tfm
INPUT conf.aux
INPUT conf.run.xml
OUTPUT conf.run.xml
INPUT /usr/local/texlive/2016/texmf-dist/fonts/enc/dvips/base/8r.enc
INPUT /usr/local/texlive/2016/texmf-dist/fonts/type1/urw/times/utmb8a.pfb
INPUT /usr/local/texlive/2016/texmf-dist/fonts/type1/urw/times/utmbi8a.pfb
INPUT /usr/local/texlive/2016/texmf-dist/fonts/type1/urw/times/utmr8a.pfb
INPUT /usr/local/texlive/2016/texmf-dist/fonts/type1/urw/times/utmri8a.pfb
