\relax 
\bibstyle{biblatex}
\bibdata{conf-blx,biblio}
\citation{biblatex-control}
\citation{biblio}
\citation{WHO2}
\citation{DOH}
\citation{Paniker}
\citation{Paniker}
\citation{Paniker}
\citation{Paniker}
\citation{Paniker}
\citation{Makkapati-Rao}
\@writefile{toc}{\boolfalse {citerequest}\boolfalse {citetracker}\boolfalse {pagetracker}\boolfalse {backtracker}\relax }
\@writefile{lof}{\boolfalse {citerequest}\boolfalse {citetracker}\boolfalse {pagetracker}\boolfalse {backtracker}\relax }
\@writefile{lot}{\boolfalse {citerequest}\boolfalse {citetracker}\boolfalse {pagetracker}\boolfalse {backtracker}\relax }
\@writefile{toc}{\defcounter {refsection}{0}\relax }\@writefile{toc}{\contentsline {section}{\numberline {I}Introduction}{1}}
\@writefile{toc}{\defcounter {refsection}{0}\relax }\@writefile{toc}{\contentsline {section}{\numberline {II}Malaria Parasites}{1}}
\newlabel{sec:species}{{II}{1}}
\@writefile{toc}{\defcounter {refsection}{0}\relax }\@writefile{toc}{\contentsline {section}{\numberline {III}State of the Art Intelligent Systems for Malaria}{1}}
\newlabel{sec:StateoftheArt}{{III}{1}}
\citation{Anggraini}
\citation{Das}
\citation{Kareem}
\citation{Das}
\citation{Anggraini}
\citation{Barros}
\citation{Pinkaew}
\citation{CS231}
\@writefile{lof}{\defcounter {refsection}{0}\relax }\@writefile{lof}{\contentsline {figure}{\numberline {1}{\ignorespaces A thin smear}}{2}}
\newlabel{thinsmear}{{1}{2}}
\@writefile{lof}{\defcounter {refsection}{0}\relax }\@writefile{lof}{\contentsline {figure}{\numberline {2}{\ignorespaces Difference in background color of two images of blood smears}}{2}}
\newlabel{malariatones}{{2}{2}}
\@writefile{toc}{\defcounter {refsection}{0}\relax }\@writefile{toc}{\contentsline {section}{\numberline {IV}Convolutional Neural Network}{2}}
\citation{CS231}
\citation{Szegedy}
\citation{Szegedy2}
\citation{Szegedy2}
\citation{Makkapati-Rao}
\@writefile{lot}{\defcounter {refsection}{0}\relax }\@writefile{lot}{\contentsline {table}{\numberline {I}{\ignorespaces The dataset used in the study}}{3}}
\newlabel{table:dataset}{{I}{3}}
\@writefile{lof}{\defcounter {refsection}{0}\relax }\@writefile{lof}{\contentsline {figure}{\numberline {3}{\ignorespaces Convolutional Neural Network\newline  \relax \fontsize  {5}{6pt}\selectfont  {\textit  {Source:} CS231n Convolutional Neural Networks for Visual Recognition.\newline  URL: \textit  {http://cs231n.github.io/convolutional-networks/}}}}{3}}
\newlabel{fig:cnn}{{3}{3}}
\@writefile{toc}{\defcounter {refsection}{0}\relax }\@writefile{toc}{\contentsline {section}{\numberline {V}Methodology and Results}{3}}
\@writefile{toc}{\defcounter {refsection}{0}\relax }\@writefile{toc}{\contentsline {subsection}{\numberline {\unhbox \voidb@x \hbox {V-A}}Dataset}{3}}
\@writefile{toc}{\defcounter {refsection}{0}\relax }\@writefile{toc}{\contentsline {subsection}{\numberline {\unhbox \voidb@x \hbox {V-B}}Data Preprocessing}{3}}
\@writefile{lof}{\defcounter {refsection}{0}\relax }\@writefile{lof}{\contentsline {figure}{\numberline {4}{\ignorespaces Image before and after image opening and closing}}{3}}
\newlabel{fig:imageopenclose}{{4}{3}}
\@writefile{lof}{\defcounter {refsection}{0}\relax }\@writefile{lof}{\contentsline {figure}{\numberline {5}{\ignorespaces Image before and after subtraction of mean and standard deviation}}{4}}
\newlabel{fig:imagemeanstd}{{5}{4}}
\@writefile{toc}{\defcounter {refsection}{0}\relax }\@writefile{toc}{\contentsline {subsection}{\numberline {\unhbox \voidb@x \hbox {V-C}}Image Segmentation}{4}}
\@writefile{toc}{\defcounter {refsection}{0}\relax }\@writefile{toc}{\contentsline {subsection}{\numberline {\unhbox \voidb@x \hbox {V-D}}Data Augmentation}{4}}
\@writefile{toc}{\defcounter {refsection}{0}\relax }\@writefile{toc}{\contentsline {subsection}{\numberline {\unhbox \voidb@x \hbox {V-E}}Classification}{4}}
\@writefile{lof}{\defcounter {refsection}{0}\relax }\@writefile{lof}{\contentsline {figure}{\numberline {6}{\ignorespaces Image before and after binary thresholding}}{4}}
\newlabel{fig:imagethresholding}{{6}{4}}
\@writefile{lot}{\defcounter {refsection}{0}\relax }\@writefile{lot}{\contentsline {table}{\numberline {II}{\ignorespaces Training and validation results of the model trained to detect Plasmodium parasites}}{4}}
\newlabel{table:cnntrain}{{II}{4}}
\@writefile{toc}{\defcounter {refsection}{0}\relax }\@writefile{toc}{\contentsline {section}{\numberline {VI}Conclusion and Recommendation}{4}}
\@writefile{lof}{\defcounter {refsection}{0}\relax }\@writefile{lof}{\contentsline {figure}{\numberline {7}{\ignorespaces An image before and after preprocessing}}{5}}
\newlabel{fig:preprocessing}{{7}{5}}
\@writefile{lof}{\defcounter {refsection}{0}\relax }\@writefile{lof}{\contentsline {figure}{\numberline {8}{\ignorespaces Some segmented regions}}{5}}
\newlabel{fig:segment}{{8}{5}}
\@writefile{lof}{\defcounter {refsection}{0}\relax }\@writefile{lof}{\contentsline {figure}{\numberline {9}{\ignorespaces Dataset augmentation by rotation of segmented image by 15 degree increments}}{5}}
\newlabel{fig:augment}{{9}{5}}
\@writefile{lof}{\defcounter {refsection}{0}\relax }\@writefile{lof}{\contentsline {figure}{\numberline {10}{\ignorespaces Training accuracy per epoch of the CNN trained to classify trophozoite species}}{5}}
\newlabel{fig:cnnfalci2}{{10}{5}}
\@writefile{lot}{\defcounter {refsection}{0}\relax }\@writefile{lot}{\contentsline {table}{\numberline {III}{\ignorespaces Performance Evaluation on CNN trained to identify Plasmodium species}}{5}}
\newlabel{table:cnnfalcieval}{{III}{5}}
