\relax 
\@writefile{toc}{\contentsline {chapter}{\numberline {6}Comments on the Skeleton}{10}}
\@writefile{lof}{\addvspace {10\p@ }}
\@writefile{lot}{\addvspace {10\p@ }}
\@setckpt{chapter6}{
\setcounter{page}{11}
\setcounter{equation}{0}
\setcounter{enumi}{3}
\setcounter{enumii}{0}
\setcounter{enumiii}{0}
\setcounter{enumiv}{0}
\setcounter{footnote}{0}
\setcounter{mpfootnote}{0}
\setcounter{part}{0}
\setcounter{chapter}{6}
\setcounter{section}{0}
\setcounter{subsection}{0}
\setcounter{subsubsection}{0}
\setcounter{paragraph}{0}
\setcounter{subparagraph}{0}
\setcounter{figure}{0}
\setcounter{table}{0}
\setcounter{parentequation}{0}
\setcounter{thm}{0}
\setcounter{defn}{0}
\setcounter{rem}{0}
\setcounter{ztocpageA}{3}
\setcounter{ztocpageB}{3}
}
