\relax 
\bibstyle{biblatex}
\bibdata{thesis-blx,biblio}
\citation{biblatex-control}
\abx@aux@sortscheme{none}
\abx@aux@refcontext{none/global/}
\@writefile{toc}{\boolfalse {citerequest}\boolfalse {citetracker}\boolfalse {pagetracker}\boolfalse {backtracker}\relax }
\@writefile{lof}{\boolfalse {citerequest}\boolfalse {citetracker}\boolfalse {pagetracker}\boolfalse {backtracker}\relax }
\@writefile{lot}{\boolfalse {citerequest}\boolfalse {citetracker}\boolfalse {pagetracker}\boolfalse {backtracker}\relax }
\@writefile{toc}{\defcounter {refsection}{0}\relax }\@writefile{toc}{\contentsline {chapter}{Table of Contents}{iv}}
\@writefile{toc}{\defcounter {refsection}{0}\relax }\@writefile{toc}{\contentsline {chapter}{List of Tables}{v}}
\@writefile{toc}{\defcounter {refsection}{0}\relax }\@writefile{toc}{\contentsline {chapter}{List of Figures}{vi}}
\@input{abstract.aux}
\@input{acknowl.aux}
\@input{chapter1.aux}
\citation{CDC}
\abx@aux@cite{CDC}
\abx@aux@segm{0}{0}{CDC}
\citation{WHO2}
\abx@aux@cite{WHO2}
\abx@aux@segm{0}{0}{WHO2}
\citation{WHO2}
\abx@aux@segm{0}{0}{WHO2}
\citation{DOH}
\abx@aux@cite{DOH}
\abx@aux@segm{0}{0}{DOH}
\citation{DOH}
\abx@aux@segm{0}{0}{DOH}
\citation{Makkapati-Rao}
\abx@aux@cite{Makkapati-Rao}
\abx@aux@segm{0}{0}{Makkapati-Rao}
\citation{Das}
\abx@aux@cite{Das}
\abx@aux@segm{0}{0}{Das}
\citation{Anggraini}
\abx@aux@cite{Anggraini}
\abx@aux@segm{0}{0}{Anggraini}
\citation{Barros}
\abx@aux@cite{Barros}
\abx@aux@segm{0}{0}{Barros}
\@input{chapter2.aux}
\citation{Paniker}
\abx@aux@cite{Paniker}
\abx@aux@segm{0}{0}{Paniker}
\citation{Paniker}
\abx@aux@segm{0}{0}{Paniker}
\citation{Paniker}
\abx@aux@segm{0}{0}{Paniker}
\citation{Paniker}
\abx@aux@segm{0}{0}{Paniker}
\citation{Paniker}
\abx@aux@segm{0}{0}{Paniker}
\citation{Paniker}
\abx@aux@segm{0}{0}{Paniker}
\citation{Paniker}
\abx@aux@segm{0}{0}{Paniker}
\citation{Paniker}
\abx@aux@segm{0}{0}{Paniker}
\citation{Paniker}
\abx@aux@segm{0}{0}{Paniker}
\citation{Paniker}
\abx@aux@segm{0}{0}{Paniker}
\citation{Paniker}
\abx@aux@segm{0}{0}{Paniker}
\citation{Paniker}
\abx@aux@segm{0}{0}{Paniker}
\citation{Paniker}
\abx@aux@segm{0}{0}{Paniker}
\citation{Markell}
\abx@aux@cite{Markell}
\abx@aux@segm{0}{0}{Markell}
\citation{Markell}
\abx@aux@segm{0}{0}{Markell}
\citation{Markell}
\abx@aux@segm{0}{0}{Markell}
\citation{CDC}
\abx@aux@segm{0}{0}{CDC}
\citation{Paniker}
\abx@aux@segm{0}{0}{Paniker}
\citation{Paniker}
\abx@aux@segm{0}{0}{Paniker}
\citation{Paniker}
\abx@aux@segm{0}{0}{Paniker}
\citation{Paniker}
\abx@aux@segm{0}{0}{Paniker}
\citation{Paniker}
\abx@aux@segm{0}{0}{Paniker}
\citation{Paniker}
\abx@aux@segm{0}{0}{Paniker}
\citation{Paniker}
\abx@aux@segm{0}{0}{Paniker}
\citation{Paniker}
\abx@aux@segm{0}{0}{Paniker}
\citation{Paniker}
\abx@aux@segm{0}{0}{Paniker}
\citation{Paniker}
\abx@aux@segm{0}{0}{Paniker}
\citation{Paniker}
\abx@aux@segm{0}{0}{Paniker}
\citation{Paniker}
\abx@aux@segm{0}{0}{Paniker}
\citation{Makkapati-Rao}
\abx@aux@segm{0}{0}{Makkapati-Rao}
\citation{Makkapati-Rao}
\abx@aux@segm{0}{0}{Makkapati-Rao}
\citation{Nanoti}
\abx@aux@cite{Nanoti}
\abx@aux@segm{0}{0}{Nanoti}
\citation{Anggraini}
\abx@aux@segm{0}{0}{Anggraini}
\citation{Anggraini}
\abx@aux@segm{0}{0}{Anggraini}
\citation{Das}
\abx@aux@segm{0}{0}{Das}
\citation{Kareem}
\abx@aux@cite{Kareem}
\abx@aux@segm{0}{0}{Kareem}
\citation{Das}
\abx@aux@segm{0}{0}{Das}
\citation{Anggraini}
\abx@aux@segm{0}{0}{Anggraini}
\citation{Barros}
\abx@aux@segm{0}{0}{Barros}
\citation{Nanoti}
\abx@aux@segm{0}{0}{Nanoti}
\citation{Pinkaew}
\abx@aux@cite{Pinkaew}
\abx@aux@segm{0}{0}{Pinkaew}
\citation{Mohammed}
\abx@aux@cite{Mohammed}
\abx@aux@segm{0}{0}{Mohammed}
\citation{Delahunt}
\abx@aux@cite{Delahunt}
\abx@aux@segm{0}{0}{Delahunt}
\citation{Quinn}
\abx@aux@cite{Quinn}
\abx@aux@segm{0}{0}{Quinn}
\citation{Dong}
\abx@aux@cite{Dong}
\abx@aux@segm{0}{0}{Dong}
\citation{Liang}
\abx@aux@cite{Liang}
\abx@aux@segm{0}{0}{Liang}
\citation{Regionprops}
\abx@aux@cite{Regionprops}
\abx@aux@segm{0}{0}{Regionprops}
\citation{Regionprops}
\abx@aux@segm{0}{0}{Regionprops}
\citation{Regionprops}
\abx@aux@segm{0}{0}{Regionprops}
\citation{Regionprops}
\abx@aux@segm{0}{0}{Regionprops}
\citation{Regionprops}
\abx@aux@segm{0}{0}{Regionprops}
\citation{Regionprops}
\abx@aux@segm{0}{0}{Regionprops}
\citation{Regionprops}
\abx@aux@segm{0}{0}{Regionprops}
\citation{Regionprops}
\abx@aux@segm{0}{0}{Regionprops}
\citation{Regionprops}
\abx@aux@segm{0}{0}{Regionprops}
\citation{Regionprops}
\abx@aux@segm{0}{0}{Regionprops}
\citation{Regionprops}
\abx@aux@segm{0}{0}{Regionprops}
\citation{CS231}
\abx@aux@cite{CS231}
\abx@aux@segm{0}{0}{CS231}
\citation{CS231}
\abx@aux@segm{0}{0}{CS231}
\citation{CS231}
\abx@aux@segm{0}{0}{CS231}
\citation{CS231}
\abx@aux@segm{0}{0}{CS231}
\citation{CS231}
\abx@aux@segm{0}{0}{CS231}
\citation{CS231}
\abx@aux@segm{0}{0}{CS231}
\citation{CS231}
\abx@aux@segm{0}{0}{CS231}
\citation{CS231}
\abx@aux@segm{0}{0}{CS231}
\citation{CS231}
\abx@aux@segm{0}{0}{CS231}
\citation{CS231}
\abx@aux@segm{0}{0}{CS231}
\citation{Szegedy}
\abx@aux@cite{Szegedy}
\abx@aux@segm{0}{0}{Szegedy}
\citation{Szegedy}
\abx@aux@segm{0}{0}{Szegedy}
\citation{Szegedy}
\abx@aux@segm{0}{0}{Szegedy}
\citation{Szegedy2}
\abx@aux@cite{Szegedy2}
\abx@aux@segm{0}{0}{Szegedy2}
\citation{Szegedy2}
\abx@aux@segm{0}{0}{Szegedy2}
\@input{chapter3.aux}
\citation{Makkapati-Rao}
\abx@aux@segm{0}{0}{Makkapati-Rao}
\citation{Das}
\abx@aux@segm{0}{0}{Das}
\citation{Anggraini}
\abx@aux@segm{0}{0}{Anggraini}
\citation{Pinkaew}
\abx@aux@segm{0}{0}{Pinkaew}
\citation{Nanoti}
\abx@aux@segm{0}{0}{Nanoti}
\citation{Dong}
\abx@aux@segm{0}{0}{Dong}
\citation{Quinn}
\abx@aux@segm{0}{0}{Quinn}
\citation{Liang}
\abx@aux@segm{0}{0}{Liang}
\@input{chapter4.aux}
\citation{Makkapati-Rao}
\abx@aux@segm{0}{0}{Makkapati-Rao}
\citation{Pinkaew}
\abx@aux@segm{0}{0}{Pinkaew}
\citation{Pinkaew}
\abx@aux@segm{0}{0}{Pinkaew}
\@input{chapter5.aux}
\@input{appendix.aux}
\abx@aux@refcontextdefaultsdone
\abx@aux@defaultrefcontext{0}{CDC}{none/global/}
\abx@aux@defaultrefcontext{0}{WHO2}{none/global/}
\abx@aux@defaultrefcontext{0}{DOH}{none/global/}
\abx@aux@defaultrefcontext{0}{Makkapati-Rao}{none/global/}
\abx@aux@defaultrefcontext{0}{Das}{none/global/}
\abx@aux@defaultrefcontext{0}{Anggraini}{none/global/}
\abx@aux@defaultrefcontext{0}{Barros}{none/global/}
\abx@aux@defaultrefcontext{0}{Paniker}{none/global/}
\abx@aux@defaultrefcontext{0}{Markell}{none/global/}
\abx@aux@defaultrefcontext{0}{Nanoti}{none/global/}
\abx@aux@defaultrefcontext{0}{Kareem}{none/global/}
\abx@aux@defaultrefcontext{0}{Pinkaew}{none/global/}
\abx@aux@defaultrefcontext{0}{Mohammed}{none/global/}
\abx@aux@defaultrefcontext{0}{Delahunt}{none/global/}
\abx@aux@defaultrefcontext{0}{Quinn}{none/global/}
\abx@aux@defaultrefcontext{0}{Dong}{none/global/}
\abx@aux@defaultrefcontext{0}{Liang}{none/global/}
\abx@aux@defaultrefcontext{0}{Regionprops}{none/global/}
\abx@aux@defaultrefcontext{0}{CS231}{none/global/}
\abx@aux@defaultrefcontext{0}{Szegedy}{none/global/}
\abx@aux@defaultrefcontext{0}{Szegedy2}{none/global/}
